{
	"info": {
		"_postman_id": "08419953-f351-4b3b-b3e1-37e974513d61",
		"name": "Nodejs Udemy",
		"schema": "https://schema.getpostman.com/json/collection/v2.1.0/collection.json",
		"_exporter_id": "21233618"
	},
	"item": [
		{
			"name": "tasks",
			"item": [
				{
					"name": "Get all tasks",
					"request": {
						"method": "GET",
						"header": [],
						"url": {
							"raw": "{{server}}tasks?search=Title 1",
							"host": [
								"{{server}}tasks"
							],
							"query": [
								{
									"key": "search",
									"value": "Title 1"
								}
							]
						}
					},
					"response": []
				},
				{
					"name": "Get all tasks (filters)",
					"request": {
						"method": "GET",
						"header": [],
						"url": {
							"raw": "{{server}}tasks?status=IN_PROGRESS",
							"host": [
								"{{server}}tasks"
							],
							"query": [
								{
									"key": "status",
									"value": "IN_PROGRESS"
								}
							]
						}
					},
					"response": []
				},
				{
					"name": "Get task by id",
					"request": {
						"auth": {
							"type": "bearer",
							"bearer": [
								{
									"key": "token",
									"value": "eyJhbGciOiJIUzI1NiIsInR5cCI6IkpXVCJ9.eyJ1c2VybmFtZSI6IkRhbmllbCIsImlhdCI6MTY1OTA5NjYzNSwiZXhwIjoxNjU5MTAwMjM1fQ.SLLZyUd9L6Qb38g2APbDwrQ3-KQrPu-SP4meiS76Aoc",
									"type": "string"
								}
							]
						},
						"method": "GET",
						"header": [],
						"url": {
							"raw": "{{server}}tasks/507abbe2-a14f-456b-8219-a38e1dd924e1",
							"host": [
								"{{server}}tasks"
							],
							"path": [
								"507abbe2-a14f-456b-8219-a38e1dd924e1"
							]
						}
					},
					"response": []
				},
				{
					"name": "Create a task",
					"request": {
						"auth": {
							"type": "bearer",
							"bearer": [
								{
									"key": "token",
									"value": "eyJhbGciOiJIUzI1NiIsInR5cCI6IkpXVCJ9.eyJ1c2VybmFtZSI6IkRhbmllbDIiLCJpYXQiOjE2NTkwOTYyNzIsImV4cCI6MTY1OTA5OTg3Mn0.p8JqCBtgIBNUdOrW-Ifzfl-Cuod6u2FJSN4tBU4QzPo",
									"type": "string"
								}
							]
						},
						"method": "POST",
						"header": [],
						"body": {
							"mode": "raw",
							"raw": "{\r\n    \"title\": \"Task title 1\",\r\n    \"description\": \"Task description 1\",\r\n    \"cositas\": \"Nuevas\"\r\n}",
							"options": {
								"raw": {
									"language": "json"
								}
							}
						},
						"url": {
							"raw": "{{server}}tasks",
							"host": [
								"{{server}}tasks"
							]
						}
					},
					"response": []
				},
				{
					"name": "Update a task",
					"request": {
						"method": "PATCH",
						"header": [],
						"body": {
							"mode": "raw",
							"raw": "{\r\n    \"status\": \"DONE\"\r\n}",
							"options": {
								"raw": {
									"language": "json"
								}
							}
						},
						"url": {
							"raw": "{{server}}tasks/bc3dda12-5787-4daf-a2bd-d144e5e3b537/status",
							"host": [
								"{{server}}tasks"
							],
							"path": [
								"bc3dda12-5787-4daf-a2bd-d144e5e3b537",
								"status"
							]
						}
					},
					"response": []
				},
				{
					"name": "Delete a task",
					"request": {
						"method": "DELETE",
						"header": [],
						"body": {
							"mode": "raw",
							"raw": "{\r\n    \"title\": \"Task title 2\",\r\n    \"description\": \"Task description 2\"\r\n}",
							"options": {
								"raw": {
									"language": "json"
								}
							}
						},
						"url": {
							"raw": "{{server}}tasks/e7947c5d-75cf-484e-9c34-2bba5c5226f6",
							"host": [
								"{{server}}tasks"
							],
							"path": [
								"e7947c5d-75cf-484e-9c34-2bba5c5226f6"
							]
						}
					},
					"response": []
				}
			]
		},
		{
			"name": "auth",
			"item": [
				{
					"name": "Create a user",
					"request": {
						"method": "POST",
						"header": [],
						"body": {
							"mode": "raw",
							"raw": "{\r\n    \"username\": \"Daniel2\",\r\n    \"password\": \"Supersecret1\"\r\n}",
							"options": {
								"raw": {
									"language": "json"
								}
							}
						},
						"url": {
							"raw": "{{server}}auth/register",
							"host": [
								"{{server}}auth"
							],
							"path": [
								"register"
							]
						}
					},
					"response": []
				},
				{
					"name": "Login",
					"request": {
						"auth": {
							"type": "noauth"
						},
						"method": "POST",
						"header": [],
						"body": {
							"mode": "raw",
							"raw": "{\r\n    \"username\": \"Daniel\",\r\n    \"password\": \"Supersecret1\"\r\n}",
							"options": {
								"raw": {
									"language": "json"
								}
							}
						},
						"url": {
							"raw": "{{server}}auth/login",
							"host": [
								"{{server}}auth"
							],
							"path": [
								"login"
							]
						}
					},
					"response": []
				}
			]
		}
	],
	"auth": {
		"type": "bearer",
		"bearer": [
			{
				"key": "token",
				"value": "{{TOKEN}}",
				"type": "string"
			}
		]
	},
	"event": [
		{
			"listen": "prerequest",
			"script": {
				"type": "text/javascript",
				"exec": [
					"pm.sendRequest({",
					"    url: 'http://localhost:3000/auth/login',",
					"    method: 'POST',",
					"    header: {",
					"        'content-type': 'application/json'",
					"    },",
					"    body: {",
					"        mode: 'raw',",
					"        raw: JSON.stringify({",
					"            \"username\": \"Daniel\",",
					"            \"password\": \"Supersecret1\"",
					"        })",
					"    }",
					"}, (err, res) => pm.collectionVariables.set(\"TOKEN\", res.json().accessToken));"
				]
			}
		},
		{
			"listen": "test",
			"script": {
				"type": "text/javascript",
				"exec": [
					""
				]
			}
		}
	],
	"variable": [
		{
			"key": "TOKEN",
			"value": ""
		}
	]
}